recipe_id	title	new_recipe_id	sodium_score	salt-replacer-enhanced_score	explanation	ingredients_imperial	ingredients_metric	directions	nutritional_facts	new_fsa_score	selection_pork	selection_chicken	selection_pasta	selection_curry	avg_z_ratings	afbeeldingaanpassen	img	recipe_href	rating
3527	Pork Marsala	1	0.2	0.24	Oregano and garlic joins the salt in enriching the flavors of this recipe.	<li>⅓ cup all-purpose flour</li> <li>¼ teaspoon salt</li> <li>¼ teaspoon garlic salt</li> <li>¾ teaspoon garlic powder</li> <li>½ teaspoon dried oregano</li> <li>1 pound boneless pork loin chops, pounded thin</li> <li>3 tablespoons butter</li> <li>¼ cup olive oil</li> <li>2 cups sliced fresh mushrooms</li> <li>1 teaspoon minced garlic</li> <li>1 cup Marsala wine</li>		<h4>Step 1</h4> <p>Mix flour, salt ,garlic salt, garlic powder, and oregano together in a medium bowl. Add pork chops, and toss until well coated.</p> <h4>Step 2</h4> <p>Heat butter and olive oil in a large skillet over medium heat. Place pork in skillet in a single layer, and cook, turning occasionally, until brown on both sides. Add mushrooms and minced garlic; cook and stir briefly.</p> <h4>Step 3</h4> <p>Stir in wine, scraping the skillet to loosen any brown bits. Cover and simmer over medium heat until pork is tender and sauce is thickened, about 15 minutes. If sauce is too thick, adjust by stirring in a small amount of wine.</p>	455 calories; protein 17.6g 35% DV; carbohydrates 18.3g 6% DV; fat 27.6g 42% DV; cholesterol 61mg 20% DV; sodium 356.2mg 14% DV.		1						https://imagesvc.meredithcorp.io/v3/mm/image?url=https%3A%2F%2Fimages.media-allrecipes.com%2Fuserphotos%2F4547073.jpg&w=596&h=596&c=sc&poi=face&q=85	http://allrecipes.com/recipe/pork-marsala/detail.aspx	
2241	Roast Pork with Maple and Mustard Glaze	2	0.29	0.29		<li>2 ½ pounds boneless pork loin roast</li> <li>1 cup real maple syrup</li> <li>4 tablespoons prepared Dijon-style mustard</li> <li>2 ½ tablespoons cider vinegar</li> <li>2 ½ tablespoons soy sauce</li> <li>salt to taste</li> <li>ground black pepper to taste</li>		<h4>Step 1</h4> <p>Preheat the oven to 350 degrees F (175 degrees C).</p> <h4>Step 2</h4> <p>Stir together the maple syrup, mustard, vinegar, soy sauce, salt, and pepper in a small bowl. Place pork roast in a shallow roasting pan. Spread glaze evenly over pork roast.</p> <h4>Step 3</h4> <p>Roast pork in the preheated oven uncovered, until internal temperature measured with a meat thermometer reaches 145 degrees F (63 degrees C), about 1 hour. Remove from oven, and let rest about 10 minutes before slicing to serve.</p>	290 calories; protein 24.4g 49% DV; carbohydrates 28.4g 9% DV; fat 8.2g 13% DV; cholesterol 68mg 23% DV; sodium 521.8mg 21% DV. 		1						https://imagesvc.meredithcorp.io/v3/mm/image?url=https%3A%2F%2Fimages.media-allrecipes.com%2Fuserphotos%2F1065998.jpg&w=596&h=596&c=sc&poi=face&q=85	http://allrecipes.com/recipe/roast-pork-with-maple-and-mustard-glaze/detail.aspx	
1089	Slow Cooker Teriyaki Pork Tenderloin	3	0.41	0.49	Garlic joins the salt in bringing out the flavors of the ingredients.	<li>2 tablespoons olive oil</li> <li>2 pounds pork tenderloin</li> <li>½ cup teriyaki sauce</li> <li>1 cup chicken broth</li> <li>¼ cup brown sugar</li> <li>4 cloves garlic, chopped</li> <li>3 fresh red chile pepper, finely chopped</li> <li>½ large onion, sliced</li> <li>¼ teaspoon black pepper</li>		<h4>Step 1</h4> <p>Heat the olive oil in a skillet over medium-high heat. Brown tenderloins on all sides, about 10 minutes. Meanwhile, mix together teriyaki sauce, chicken broth, and brown sugar in a bowl. Stir in garlic, red chile pepper, onion, and black pepper.</p> <h4>Step 2</h4> <p>Put browned tenderloins into slow cooker, cover with the teriyaki sauce mixture. Cook on Low for about 4 hours, turning 2 to 3 times during the cooking time to ensure even doneness. Internal temperature in the tenderloin should reach 180 degrees F (82 degrees C).</p> <h4>Step 3</h4> <p>Remove tenderloins from the slow cooker and let rest for 5 minutes before slicing. If desired, spoon liquid over slices when serving.</p>	177 calories; protein 19.2g 38% DV; carbohydrates 10.3g 3% DV; fat 6.2g 10% DV; cholesterol 49.8mg 17% DV; sodium 877.2mg 35% DV.		1						https://imagesvc.meredithcorp.io/v3/mm/image?url=https%3A%2F%2Fimages.media-allrecipes.com%2Fuserphotos%2F555143.jpg&w=596&h=399&c=sc&poi=face&q=85	http://allrecipes.com/recipe/slow-cooker-teriyaki-pork-tenderloin/detail.aspx	
5	Skillet Pork Chops with Potatoes and Onion	4	0.6	0.6		<li>2 tablespoons vegetable oil</li> <li>4 pork chops (1/2 inch thick), trimmed</li> <li>2 tablespoons all-purpose flour</li> <li>⅓ cup grated Parmesan cheese</li> <li>½ teaspoon salt</li> <li>¼ teaspoon pepper</li> <li>4 Yukon Gold potatoes, thinly sliced</li> <li>2 medium onions, sliced</li> <li>3 cubes beef bouillon</li> <li>¾ cup hot water</li> <li>1 tablespoon lemon juice</li>		<h4>Step 1</h4> <p>Heat oil in a large skillet over medium heat. Coat the pork chops with flour, and place in the skillet. Brown about 4 minutes on each side.</p> <h4>Step 2</h4> <p>In a small bowl, mix the Parmesan cheese, salt, and pepper. Sprinkle 1/2 the Parmesan cheese mixture over the pork chops. Layer chops with the potatoes. Sprinkle with remaining Parmesan cheese mixture. Top with onion slices.</p> <h4>Step 3</h4> <p>In a small bowl, dissolve the beef bouillon cubes in hot water. Stir in the lemon juice. Pour over the layered pork chops.</p> <h4>Step 4</h4> <p>Cover skillet, and reduce heat. Simmer 40 minutes, until vegetables are tender and pork chops have reached an internal temperature of 145 degrees F (63 degrees C).</p>	354 calories; protein 20.9g 42% DV; carbohydrates 31.2g 10% DV; fat 16.4g 25% DV; cholesterol 44.4mg 15% DV; sodium 1078.7mg 43% DV.		1						https://imagesvc.meredithcorp.io/v3/mm/image?url=https%3A%2F%2Fimages.media-allrecipes.com%2Fuserphotos%2F4498308.jpg&w=596&h=399&c=sc&poi=face&q=85	http://allrecipes.com/recipe/skillet-pork-chops-with-potatoes-and-onion/detail.aspx	
1247	Pork Chops for the Slow Cooker	5	0.74	0.89	Garlic joins the salt in bringing out the flavors of the ingredients.	<li>6 boneless pork chops</li> <li>¼ cup brown sugar</li> <li>1 teaspoon ground ginger</li> <li>½ cup soy sauce</li> <li>¼ cup ketchup</li> <li>2 cloves garlic, crushed</li> <li>salt and pepper to taste</li>		<h4>Step 1</h4> <p>Place pork chops in slow cooker. Combine remaining ingredients and pour over pork chops.</p> <h4>Step 2</h4> <p>Cook on Low setting for 6 hours, until internal temperature of pork has reached 145 degrees F (63 degrees C).</p>	146 calories; protein 16g 32% DV; carbohydrates 10.6g 3% DV; fat 4.3g 7% DV; cholesterol 36mg 12% DV; sodium 1336.6mg 54% DV. 		1						https://imagesvc.meredithcorp.io/v3/mm/image?url=https%3A%2F%2Fimages.media-allrecipes.com%2Fuserphotos%2F1714822.jpg&w=596&h=596&c=sc&poi=face&q=85	http://allrecipes.com/recipe/pork-chops-for-the-slow-cooker/detail.aspx	
5471	North Carolina-Style Pulled Pork	6	0.94	0.94		<li>1 tablespoon mild paprika</li> <li>2 teaspoons light brown sugar</li> <li>1 ½ teaspoons hot paprika</li> <li>½ teaspoon celery salt</li> <li>½ teaspoon garlic salt</li> <li>½ teaspoon dry mustard</li> <li>½ teaspoon ground black pepper</li> <li>½ teaspoon onion powder</li> <li>¼ teaspoon salt</li> <li>8 pounds pork butt roast</li> <li>2 cups cider vinegar</li> <li>1 ⅓ cups water</li> <li>⅝ cup ketchup</li> <li>¼ cup firmly packed brown sugar</li> <li>5 teaspoons salt</li> <li>4 teaspoons crushed red pepper flakes</li> <li>1 teaspoon ground black pepper</li> <li>1 teaspoon ground white pepper</li> <li>2 pounds hickory wood chips, soaked</li>		<h4>Step 1</h4> <p>In a small bowl, mix mild paprika, light brown sugar, hot paprika, celery salt, garlic salt, dry mustard, ground black pepper, onion powder, and salt. Rub spice mixture into the roast on all sides. Wrap in plastic wrap, and refrigerate 8 hours, or overnight.</p> <h4>Step 2</h4> <p>Prepare a grill for indirect heat.</p> <h4>Step 3</h4> <p>Sprinkle a handful of soaked wood over coals, or place in the smoker box of a gas grill. Place pork butt roast on the grate over a drip pan. Cover grill, and cook pork until pork is tender and shreds easily, about 6 hours. Check hourly, adding fresh coals and hickory chips as necessary to maintain heat and smoke.</p> <h4>Step 4</h4> <p>Remove pork from heat and place on a cutting board. Allow the meat to cool approximately 15 minutes, then shred into bite-sized pieces using two forks. This requires patience.</p> <h4>Step 5</h4> <p>In a medium bowl, whisk together cider vinegar, water, ketchup, brown sugar, salt, red pepper flakes, black pepper, and white pepper. Continue whisking until brown sugar and salt have dissolved. Place shredded pork and vinegar sauce in a large roasting pan, and stir to coat pork. Serve immediately, or cover and keep warm on the grill for up to one hour until serving.</p>	426 calories; protein 39.1g 78% DV; carbohydrates 12.1g 4% DV; fat 23.1g 36% DV; cholesterol 134.9mg 45% DV; sodium 1698.4mg 68% DV.		1						https://imagesvc.meredithcorp.io/v3/mm/image?url=https%3A%2F%2Fimages.media-allrecipes.com%2Fuserphotos%2F1018491.jpg&w=596&h=596&c=sc&poi=face&q=85	http://allrecipes.com/recipe/north-carolina-style-pulled-pork/detail.aspx	
2061	Baked Lemon Chicken with Mushroom Sauce	7	0.11	0.11		<li>1 tablespoon olive oil</li> <li>6 skinless, boneless chicken breast halves</li> <li>1 lemon</li> <li>¼ cup butter</li> <li>3 cups fresh sliced mushrooms</li> <li>2 tablespoons all-purpose flour</li> <li>½ cup chicken broth, or more as needed</li> <li>1 tablespoon chopped fresh parsley</li>		<h4>Step 1</h4> <p>Preheat oven to 400 degrees F (205 degrees C).</p> <h4>Step 2</h4> <p>Pour olive oil in an 8x8-inch glass baking dish. Place the chicken breasts in the dish, coating each side with oil. Squeeze the juice of 1/2 lemon over each chicken breast. Slice the rest of the lemon and place a lemon slice on top of each chicken piece.</p> <h4>Step 3</h4> <p>Bake in the preheated oven until no longer pink in the center and the juices run clear, 30 to 40 minutes. An instant-read thermometer inserted into the center should read at least 165 degrees F (74 degrees C).</p> <h4>Step 4</h4> <p>Melt butter in a skillet over medium heat; add mushrooms. Cook and stir until mushrooms are brown and liquid is evaporated, about 6 minutes. Sprinkle flour over mushrooms and stir until coated. Add chicken broth, stirring to make a medium-thick sauce. Allow sauce to reduce, adjusting with a little more broth to make a creamy sauce. Add fresh parsley at the last minute. Spoon the sauce over the baked chicken breasts.</p>	240 calories; protein 26.3g 53% DV; carbohydrates 5.2g 2% DV; fat 13g 20% DV; cholesterol 87.9mg 29% DV; sodium 195.7mg 8% DV.			1					https://imagesvc.meredithcorp.io/v3/mm/image?url=https%3A%2F%2Fimages.media-allrecipes.com%2Fuserphotos%2F3923886.jpg&w=596&h=596&c=sc&poi=face&q=85	http://allrecipes.com/recipe/baked-lemon-chicken-with-mushroom-sauce/detail.aspx	
1656	Chicken Marsala	8	0.3	0.36	Oregano joins the salt in enriching the flavors of this recipe.	<li>¼ cup all-purpose flour for coating</li> <li>½ teaspoon salt</li> <li>¼ teaspoon ground black pepper</li> <li>½ teaspoon dried oregano</li> <li>4 skinless, boneless chicken breast halves - pounded 1/4 inch thick</li> <li>4 tablespoons butter</li> <li>4 tablespoons olive oil</li> <li>1 cup sliced mushrooms</li> <li>½ cup Marsala wine</li> <li>¼ cup cooking sherry</li>		<h4>Step 1</h4> <p>In a shallow dish or bowl, mix together the flour, salt, pepper and oregano. Coat chicken pieces in flour mixture.</p> <h4>Step 2</h4> <p>In a large skillet, melt butter in oil over medium heat. Place chicken in the pan, and lightly brown. Turn over chicken pieces, and add mushrooms. Pour in wine and sherry. Cover skillet; simmer chicken 10 minutes, turning once, until no longer pink and juices run clear.</p>	448 calories; protein 28.8g 58% DV; carbohydrates 13.3g 4% DV; fat 26.6g 41% DV; cholesterol 99mg 33% DV; sodium 543mg 22% DV.			1					https://imagesvc.meredithcorp.io/v3/mm/image?url=https%3A%2F%2Fimages.media-allrecipes.com%2Fuserphotos%2F5056031.jpg&w=596&h=596&c=sc&poi=face&q=85	http://allrecipes.com/recipe/chicken-marsala/detail.aspx	
3870	Oh-So-Good Chicken	9	0.4	0.4		<li>4 teaspoons olive oil</li> <li>6 tablespoons sour cream</li> <li>4 ounces shredded Cheddar cheese</li> <li>2 cups fresh sliced mushrooms</li> <li>1 (16 ounce) jar salsa</li> <li>2 cups cooked white rice</li> <li>8 ounces boneless chicken breast halves, cooked and diced</li>		<h4>Step 1</h4> <p>In a skillet, heat oil over medium heat. Saute mushrooms.</p> <h4>Step 2</h4> <p>Combine mushrooms, sour cream, cheese, salsa, rice, and chicken. Place in a greased casserole dish.</p> <h4>Step 3</h4> <p>Bake at 350 degrees F (175 degrees C) for 25 to 35 minutes.</p>	357 calories; protein 22.4g 45% DV; carbohydrates 25.4g 8% DV; fat 18.7g 29% DV; cholesterol 65mg 22% DV; sodium 717.5mg 29% DV.			1					https://imagesvc.meredithcorp.io/v3/mm/image?url=https%3A%2F%2Fimages.media-allrecipes.com%2Fuserphotos%2F6643004.jpg&w=596&h=399&c=sc&poi=face&q=85	http://allrecipes.com/recipe/oh-so-good-chicken/detail.aspx	
1690	Chicken Scarpariello	10	0.61	0.73	Rosemary and garlic joins the salt in enriching the flavors of this recipe.	<li>1 ¼ pounds skinless, boneless chicken breast halves</li> <li>3 tablespoons all-purpose flour</li> <li>2 tablespoons olive oil</li> <li>2 teaspoons butter</li> <li>2 tablespoons shallots, minced</li> <li>2 cloves garlic, minced</li> <li>1 cup water</li> <li>½ cup white wine</li> <li>1 cube chicken bouillon</li> <li>½ teaspoon dried rosemary, crushed</li> <li>¼ teaspoon salt</li> <li>1 pinch ground black pepper</li>		<h4>Step 1</h4> <p>Cut chicken breasts into 1 x 3 inch strips, and dredge in flour.</p> <h4>Step 2</h4> <p>In 10 inch skillet, heat oil and butter. Add chicken. Cook, turning occasionally, until lightly browned on all sides (3 to 4 minutes). Using tongs, remove chicken from skillet. Set aside and keep warm.</p> <h4>Step 3</h4> <p>To same skillet, add shallots and garlic. Saute until softened (1 minute). Add water, wine, broth mix, and seasonings. Mix well. Cook, stirring frequently, until liquid is reduced by 1/2 (3 to 4 minutes). Return chicken to skillet, and cook until sauce is thick and chicken is heated through (2 to 3 minutes).</p>	580 calories; protein 67.7g 136% DV; carbohydrates 14.3g 5% DV; fat 21.4g 33% DV; cholesterol 175.8mg 59% DV; sodium 1085.8mg 43% DV. 			1					https://imagesvc.meredithcorp.io/v3/mm/image?url=https%3A%2F%2Fimages.media-allrecipes.com%2Fuserphotos%2F570729.jpg&w=596&h=596&c=sc&poi=face&q=85	http://allrecipes.com/recipe/chicken-scarpariello/detail.aspx	
117	Tomato Chicken Parmesan	11	0.69	0.69		<li>2 eggs, beaten</li> <li>1 cup grated Parmesan cheese</li> <li>7 ounces seasoned bread crumbs</li> <li>6 skinless, boneless chicken breast halves</li> <li>1 tablespoon vegetable oil</li> <li>12 ounces pasta sauce</li> <li>6 slices Monterey Jack cheese</li>		<h4>Step 1</h4> <p>Preheat oven to 375 degrees F (190 degrees C).</p> <h4>Step 2</h4> <p>Pour beaten eggs into a shallow dish or bowl. In another shallow dish or bowl, mix together the grated Parmesan cheese and bread crumbs. Dip chicken breasts into beaten egg, then into bread crumb mixture to coat.</p> <h4>Step 3</h4> <p>In a large skillet, heat oil over medium high heat. Add coated chicken and saute for about 8 to 10 minutes each side, or until chicken is cooked through and juices run clear.</p> <h4>Step 4</h4> <p>Pour tomato sauce into a lightly greased 9x13 inch baking dish. Add chicken, then place a slice of Monterey Jack cheese over each breast, and bake in the preheated oven for 20 minutes or until cheese is completely melted.</p>	513 calories; protein 44.3g 89% DV; carbohydrates 31.2g 10% DV; fat 22.5g 35% DV; cholesterol 167.6mg 56% DV; sodium 1249mg 50% DV.			1					https://imagesvc.meredithcorp.io/v3/mm/image?url=https%3A%2F%2Fimages.media-allrecipes.com%2Fuserphotos%2F623503.jpg&w=596&h=399&c=sc&poi=face&q=85	http://allrecipes.com/recipe/tomato-chicken-parmesan/detail.aspx	
322	Slow Cooker Sweet and Tangy Chicken	12	0.81	0.97	Garlic joins the salt in bringing out the flavors of the ingredients.	<li>2 (18 ounce) bottles barbeque sauce</li> <li>1 (15 ounce) can pineapple chunks</li> <li>1 green bell pepper, chopped</li> <li>1 onion, chopped</li> <li>2 cloves garlic, minced</li> <li>8 boneless, skinless chicken breast halves</li>		<h4>Step 1</h4> <p>In a large bowl, mix together barbecue sauce, pineapple with juice, green bell pepper, onion, and garlic.</p> <h4>Step 2</h4> <p>Arrange 4 of the chicken breasts in the bottom of a slow cooker. Pour half of the barbecue sauce over the chicken. Place remaining chicken in slow cooker, and pour remaining sauce over the top.</p> <h4>Step 3</h4> <p>Cover, and cook on Low for 8 to 9 hours.</p>	349 calories; protein 23.4g 47% DV; carbohydrates 56.1g 18% DV; fat 2.8g 4% DV; cholesterol 60.8mg 20% DV; sodium 1461.4mg 59% DV.			1					https://imagesvc.meredithcorp.io/v3/mm/image?url=https%3A%2F%2Fimages.media-allrecipes.com%2Fuserphotos%2F4536197.jpg&w=595&h=595&c=sc&poi=face&q=85	http://allrecipes.com/recipe/slow-cooker-sweet-and-tangy-chicken/detail.aspx	
